Loaded Batch : C:\TestWF\ATPA\Data\DENT\07092501-01_003_006_A.mdb into : C:\TestWF\ATPA\ATPA.mdb 12/8/2008 11:31:43 AM
Loaded Batch : C:\TestWF\ATPA\Data\DENT\07092801-01_001_005_A.mdb into : C:\TestWF\ATPA\ATPA.mdb 12/8/2008 11:31:47 AM
Loaded Batch : C:\TestWF\CSLICO\Data\DENT\080582008.mdb into : C:\TestWF\CSLICO\CSLICO_Dental.mdb 12/8/2008 11:31:55 AM
Loaded Batch : C:\TestWF\CSLICO\Data\DENT\080582009.mdb into : C:\TestWF\CSLICO\CSLICO_Dental.mdb 12/8/2008 11:32:03 AM
