Loaded Batch : T:\wgat\Data\Dent\55550520-01_72_072-test.mdb into : T:\wgat\WGAT_DENT.mdb 11/22/2005 8:49:10 AM
Loaded Batch : T:\wgat\Data\Dent\05010520-01_72_072-test.mdb into : T:\wgat\WGAT_DENT.mdb 11/22/2005 8:51:13 AM
Loaded Batch : T:\wgat\Data\Dent\05010520-01_72_072-test1.mdb into : T:\wgat\WGAT_DENT.mdb 11/22/2005 8:51:46 AM
Loaded Batch : T:\wgat\Data\Dent\05010520-01_72_072-test2.mdb into : T:\wgat\WGAT_DENT.mdb 11/22/2005 8:51:49 AM
